/Users/bilalalsilwadi/IdeaProjects/BackendAutoProject/src/test/java/steps/DBStepDef.java
/Users/bilalalsilwadi/IdeaProjects/BackendAutoProject/src/test/java/runner/Runner.java
/Users/bilalalsilwadi/IdeaProjects/BackendAutoProject/src/test/java/utils/ConfigReader.java
/Users/bilalalsilwadi/IdeaProjects/BackendAutoProject/src/test/java/utils/DBUtil.java
